<svg width="10" height="9" viewBox="0 0 10 9" fill="none" xmlns="http://www.w3.org/2000/svg">
<path d="M1.79543 2.9729C1.46072 2.5336 0.833262 2.44881 0.393957 2.78352C-0.045348 3.11822 -0.13014 3.74569 0.204568 4.18499L1.79543 2.9729ZM4.36842 8L3.57299 8.60604C3.76924 8.86362 4.07805 9.01022 4.40169 8.99945C4.72533 8.98867 5.02371 8.82186 5.2024 8.5518L4.36842 8ZM9.83397 1.5518C10.1387 1.09121 10.0124 0.470778 9.5518 0.166025C9.09121 -0.138727 8.47078 -0.0123943 8.16603 0.448197L9.83397 1.5518ZM0.204568 4.18499L3.57299 8.60604L5.16385 7.39396L1.79543 2.9729L0.204568 4.18499ZM5.2024 8.5518L9.83397 1.5518L8.16603 0.448197L3.53445 7.4482L5.2024 8.5518Z" fill="#B49678"/>
</svg>
