<svg width="20" height="15" viewBox="0 0 20 15" fill="none" xmlns="http://www.w3.org/2000/svg">
<path d="M9.99999 9.94815L7.51294 7.77197L0.466309 13.8342C0.725376 14.0932 1.08807 14.1968 1.45076 14.1968H18.5492C18.9119 14.1968 19.2746 14.0414 19.5337 13.8342L12.487 7.77197L9.99999 9.94815Z" fill="#B49678"/>
<path d="M19.5337 0.362697C19.2746 0.103629 18.9119 0 18.5492 0H1.45076C1.08807 0 0.725376 0.155438 0.466309 0.414506L9.99999 8.60104L19.5337 0.362697Z" fill="#B49678"/>
<path d="M0 1.19141V13.0567L6.89119 7.20178L0 1.19141Z" fill="#B49678"/>
<path d="M13.1089 7.20178L20.0001 13.0567V1.19141L13.1089 7.20178Z" fill="#B49678"/>
</svg>
